[
    {
        "Coin": "Bitcoin",
        "Type": "Kauf",
        "Fee": 0.5,
        "Rate": 50.0,
        "Amount": 3.0,
        "Value": 150.0,
        "PurchaseDate": "1997-07-04T00:00:00"
    },
    {
        "Coin": "Bitcoin",
        "Type": "Kauf",
        "Fee": 0.5,
        "Rate": 50.0,
        "Amount": 3.0,
        "Value": 150.0,
        "PurchaseDate": "1998-07-04T00:00:00"
    },
    {
        "Coin": "Ethereum",
        "Type": "Kauf",
        "Fee": 0.5,
        "Rate": 50.0,
        "Amount": 3.0,
        "Value": 150.0,
        "PurchaseDate": "1997-07-04T00:00:00"
    },
    {
        "Coin": "EOS",
        "Type": "Kauf",
        "Fee": 0.5,
        "Rate": 50.0,
        "Amount": 3.0,
        "Value": 150.0,
        "PurchaseDate": "1997-07-04T00:00:00"
    }
]