[
  {
    "Id": 36342,
    "Title": "HelloWorld",
    "CardDeckLink": "https://www.uni-augsburg.de/de/fakultaet/fai/isse/prof/swtse/teaching/students/",
    "TimeEstimation": 12.0
  },
  {
    "Id": 93653,
    "Title": "105 Basics Software Developement",
    "CardDeckLink": "https://www.isse.de",
    "TimeEstimation": 2.0
  },
  {
    "Id": 59237,
    "Title": "106 Where to find documentation!",
    "CardDeckLink": "https://www.youtube.de",
    "TimeEstimation": 2.0
  },
  {
    "Id": 29521,
    "Title": "1122 Git Basic",
    "CardDeckLink": "https://git-scm.com/",
    "TimeEstimation": 17.0
  },
  {
    "Id": 94632,
    "Title": "137 GitLab Basics",
    "CardDeckLink": "https://gitlab.isse.de/",
    "TimeEstimation": 1.0
  }
]